%YAML 1.1
%TAG !u! tag:unity3d.com,2011:
--- !u!1 &4634759143886079270
GameObject:
  m_ObjectHideFlags: 0
  m_CorrespondingSourceObject: {fileID: 0}
  m_PrefabInstance: {fileID: 0}
  m_PrefabAsset: {fileID: 0}
  serializedVersion: 6
  m_Component:
  - component: {fileID: 8909300598077346035}
  - component: {fileID: 1029695713509976529}
  m_Layer: 31
  m_Name: Items
  m_TagString: Untagged
  m_Icon: {fileID: 0}
  m_NavMeshLayer: 0
  m_StaticEditorFlags: 0
  m_IsActive: 1
--- !u!4 &8909300598077346035
Transform:
  m_ObjectHideFlags: 0
  m_CorrespondingSourceObject: {fileID: 0}
  m_PrefabInstance: {fileID: 0}
  m_PrefabAsset: {fileID: 0}
  m_GameObject: {fileID: 4634759143886079270}
  m_LocalRotation: {x: 0, y: 0, z: 0, w: 1}
  m_LocalPosition: {x: 0, y: 0, z: 0}
  m_LocalScale: {x: 1, y: 1, z: 1}
  m_Children:
  - {fileID: 6926223928405168516}
  m_Father: {fileID: 0}
  m_RootOrder: 0
  m_LocalEulerAnglesHint: {x: 0, y: 0, z: 0}
--- !u!156049354 &1029695713509976529
Grid:
  m_ObjectHideFlags: 0
  m_CorrespondingSourceObject: {fileID: 0}
  m_PrefabInstance: {fileID: 0}
  m_PrefabAsset: {fileID: 0}
  m_GameObject: {fileID: 4634759143886079270}
  m_Enabled: 1
  m_CellSize: {x: 1.5416666, y: 1.625, z: 0}
  m_CellGap: {x: 0, y: 0, z: 0}
  m_CellLayout: 0
  m_CellSwizzle: 0
--- !u!1 &7238030071129011893
GameObject:
  m_ObjectHideFlags: 0
  m_CorrespondingSourceObject: {fileID: 0}
  m_PrefabInstance: {fileID: 0}
  m_PrefabAsset: {fileID: 0}
  serializedVersion: 6
  m_Component:
  - component: {fileID: 6926223928405168516}
  - component: {fileID: 2798283268142218623}
  - component: {fileID: 7322687526296501764}
  m_Layer: 0
  m_Name: Layer1
  m_TagString: Untagged
  m_Icon: {fileID: 0}
  m_NavMeshLayer: 0
  m_StaticEditorFlags: 0
  m_IsActive: 1
--- !u!4 &6926223928405168516
Transform:
  m_ObjectHideFlags: 0
  m_CorrespondingSourceObject: {fileID: 0}
  m_PrefabInstance: {fileID: 0}
  m_PrefabAsset: {fileID: 0}
  m_GameObject: {fileID: 7238030071129011893}
  m_LocalRotation: {x: -0, y: -0, z: -0, w: 1}
  m_LocalPosition: {x: 0, y: 0, z: 0}
  m_LocalScale: {x: 1, y: 1, z: 1}
  m_Children:
  - {fileID: 667100729879507005}
  - {fileID: 4625506644400995659}
  - {fileID: 7160750141789477049}
  m_Father: {fileID: 8909300598077346035}
  m_RootOrder: 0
  m_LocalEulerAnglesHint: {x: 0, y: 0, z: 0}
--- !u!1839735485 &2798283268142218623
Tilemap:
  m_ObjectHideFlags: 0
  m_CorrespondingSourceObject: {fileID: 0}
  m_PrefabInstance: {fileID: 0}
  m_PrefabAsset: {fileID: 0}
  m_GameObject: {fileID: 7238030071129011893}
  m_Enabled: 1
  m_Tiles:
  - first: {x: -3, y: -4, z: 0}
    second:
      serializedVersion: 2
      m_TileIndex: 20
      m_TileSpriteIndex: 20
      m_TileMatrixIndex: 0
      m_TileColorIndex: 0
      m_TileObjectToInstantiateIndex: 65535
      dummyAlignment: 0
      m_AllTileFlags: 1073741825
  - first: {x: -2, y: -4, z: 0}
    second:
      serializedVersion: 2
      m_TileIndex: 21
      m_TileSpriteIndex: 21
      m_TileMatrixIndex: 0
      m_TileColorIndex: 0
      m_TileObjectToInstantiateIndex: 65535
      dummyAlignment: 0
      m_AllTileFlags: 1073741825
  - first: {x: -1, y: -4, z: 0}
    second:
      serializedVersion: 2
      m_TileIndex: 22
      m_TileSpriteIndex: 22
      m_TileMatrixIndex: 0
      m_TileColorIndex: 0
      m_TileObjectToInstantiateIndex: 65535
      dummyAlignment: 0
      m_AllTileFlags: 1073741825
  - first: {x: 0, y: -4, z: 0}
    second:
      serializedVersion: 2
      m_TileIndex: 23
      m_TileSpriteIndex: 23
      m_TileMatrixIndex: 0
      m_TileColorIndex: 0
      m_TileObjectToInstantiateIndex: 65535
      dummyAlignment: 0
      m_AllTileFlags: 1073741825
  - first: {x: -3, y: -3, z: 0}
    second:
      serializedVersion: 2
      m_TileIndex: 15
      m_TileSpriteIndex: 15
      m_TileMatrixIndex: 0
      m_TileColorIndex: 0
      m_TileObjectToInstantiateIndex: 65535
      dummyAlignment: 0
      m_AllTileFlags: 1073741825
  - first: {x: -2, y: -3, z: 0}
    second:
      serializedVersion: 2
      m_TileIndex: 16
      m_TileSpriteIndex: 16
      m_TileMatrixIndex: 0
      m_TileColorIndex: 0
      m_TileObjectToInstantiateIndex: 65535
      dummyAlignment: 0
      m_AllTileFlags: 1073741825
  - first: {x: -1, y: -3, z: 0}
    second:
      serializedVersion: 2
      m_TileIndex: 17
      m_TileSpriteIndex: 17
      m_TileMatrixIndex: 0
      m_TileColorIndex: 0
      m_TileObjectToInstantiateIndex: 65535
      dummyAlignment: 0
      m_AllTileFlags: 1073741825
  - first: {x: 0, y: -3, z: 0}
    second:
      serializedVersion: 2
      m_TileIndex: 18
      m_TileSpriteIndex: 18
      m_TileMatrixIndex: 0
      m_TileColorIndex: 0
      m_TileObjectToInstantiateIndex: 65535
      dummyAlignment: 0
      m_AllTileFlags: 1073741825
  - first: {x: 1, y: -3, z: 0}
    second:
      serializedVersion: 2
      m_TileIndex: 19
      m_TileSpriteIndex: 19
      m_TileMatrixIndex: 0
      m_TileColorIndex: 0
      m_TileObjectToInstantiateIndex: 65535
      dummyAlignment: 0
      m_AllTileFlags: 1073741825
  - first: {x: -3, y: -2, z: 0}
    second:
      serializedVersion: 2
      m_TileIndex: 10
      m_TileSpriteIndex: 10
      m_TileMatrixIndex: 0
      m_TileColorIndex: 0
      m_TileObjectToInstantiateIndex: 65535
      dummyAlignment: 0
      m_AllTileFlags: 1073741825
  - first: {x: -2, y: -2, z: 0}
    second:
      serializedVersion: 2
      m_TileIndex: 11
      m_TileSpriteIndex: 11
      m_TileMatrixIndex: 0
      m_TileColorIndex: 0
      m_TileObjectToInstantiateIndex: 65535
      dummyAlignment: 0
      m_AllTileFlags: 1073741825
  - first: {x: -1, y: -2, z: 0}
    second:
      serializedVersion: 2
      m_TileIndex: 12
      m_TileSpriteIndex: 12
      m_TileMatrixIndex: 0
      m_TileColorIndex: 0
      m_TileObjectToInstantiateIndex: 65535
      dummyAlignment: 0
      m_AllTileFlags: 1073741825
  - first: {x: 0, y: -2, z: 0}
    second:
      serializedVersion: 2
      m_TileIndex: 13
      m_TileSpriteIndex: 13
      m_TileMatrixIndex: 0
      m_TileColorIndex: 0
      m_TileObjectToInstantiateIndex: 65535
      dummyAlignment: 0
      m_AllTileFlags: 1073741825
  - first: {x: 1, y: -2, z: 0}
    second:
      serializedVersion: 2
      m_TileIndex: 14
      m_TileSpriteIndex: 14
      m_TileMatrixIndex: 0
      m_TileColorIndex: 0
      m_TileObjectToInstantiateIndex: 65535
      dummyAlignment: 0
      m_AllTileFlags: 1073741825
  - first: {x: -3, y: -1, z: 0}
    second:
      serializedVersion: 2
      m_TileIndex: 5
      m_TileSpriteIndex: 5
      m_TileMatrixIndex: 0
      m_TileColorIndex: 0
      m_TileObjectToInstantiateIndex: 65535
      dummyAlignment: 0
      m_AllTileFlags: 1073741825
  - first: {x: -2, y: -1, z: 0}
    second:
      serializedVersion: 2
      m_TileIndex: 6
      m_TileSpriteIndex: 6
      m_TileMatrixIndex: 0
      m_TileColorIndex: 0
      m_TileObjectToInstantiateIndex: 65535
      dummyAlignment: 0
      m_AllTileFlags: 1073741825
  - first: {x: -1, y: -1, z: 0}
    second:
      serializedVersion: 2
      m_TileIndex: 7
      m_TileSpriteIndex: 7
      m_TileMatrixIndex: 0
      m_TileColorIndex: 0
      m_TileObjectToInstantiateIndex: 65535
      dummyAlignment: 0
      m_AllTileFlags: 1073741825
  - first: {x: 0, y: -1, z: 0}
    second:
      serializedVersion: 2
      m_TileIndex: 8
      m_TileSpriteIndex: 8
      m_TileMatrixIndex: 0
      m_TileColorIndex: 0
      m_TileObjectToInstantiateIndex: 65535
      dummyAlignment: 0
      m_AllTileFlags: 1073741825
  - first: {x: 1, y: -1, z: 0}
    second:
      serializedVersion: 2
      m_TileIndex: 9
      m_TileSpriteIndex: 9
      m_TileMatrixIndex: 0
      m_TileColorIndex: 0
      m_TileObjectToInstantiateIndex: 65535
      dummyAlignment: 0
      m_AllTileFlags: 1073741825
  - first: {x: -3, y: 0, z: 0}
    second:
      serializedVersion: 2
      m_TileIndex: 0
      m_TileSpriteIndex: 0
      m_TileMatrixIndex: 0
      m_TileColorIndex: 0
      m_TileObjectToInstantiateIndex: 65535
      dummyAlignment: 0
      m_AllTileFlags: 1073741825
  - first: {x: -2, y: 0, z: 0}
    second:
      serializedVersion: 2
      m_TileIndex: 1
      m_TileSpriteIndex: 1
      m_TileMatrixIndex: 0
      m_TileColorIndex: 0
      m_TileObjectToInstantiateIndex: 65535
      dummyAlignment: 0
      m_AllTileFlags: 1073741825
  - first: {x: -1, y: 0, z: 0}
    second:
      serializedVersion: 2
      m_TileIndex: 2
      m_TileSpriteIndex: 2
      m_TileMatrixIndex: 0
      m_TileColorIndex: 0
      m_TileObjectToInstantiateIndex: 65535
      dummyAlignment: 0
      m_AllTileFlags: 1073741825
  - first: {x: 0, y: 0, z: 0}
    second:
      serializedVersion: 2
      m_TileIndex: 3
      m_TileSpriteIndex: 3
      m_TileMatrixIndex: 0
      m_TileColorIndex: 0
      m_TileObjectToInstantiateIndex: 65535
      dummyAlignment: 0
      m_AllTileFlags: 1073741825
  - first: {x: 1, y: 0, z: 0}
    second:
      serializedVersion: 2
      m_TileIndex: 4
      m_TileSpriteIndex: 4
      m_TileMatrixIndex: 0
      m_TileColorIndex: 0
      m_TileObjectToInstantiateIndex: 65535
      dummyAlignment: 0
      m_AllTileFlags: 1073741825
  m_AnimatedTiles: {}
  m_TileAssetArray:
  - m_RefCount: 1
    m_Data: {fileID: 11400000, guid: 8ff92e7ea17c0584fa77a5ad3031ba70, type: 2}
  - m_RefCount: 1
    m_Data: {fileID: 11400000, guid: 98cddd0cc58cc2b46bcedc447349c16e, type: 2}
  - m_RefCount: 1
    m_Data: {fileID: 11400000, guid: 7cdad33d35fae29469c55d5e09484ed7, type: 2}
  - m_RefCount: 1
    m_Data: {fileID: 11400000, guid: 390ef91debe52c24fb669caae1899f91, type: 2}
  - m_RefCount: 1
    m_Data: {fileID: 11400000, guid: 52abe660f4cd5fd40a111bcaf0542ced, type: 2}
  - m_RefCount: 1
    m_Data: {fileID: 11400000, guid: 37f42109d3b7a0b42a0edb8a84c7cb6b, type: 2}
  - m_RefCount: 1
    m_Data: {fileID: 11400000, guid: 0d890844e99bd0e46ae03de403e88955, type: 2}
  - m_RefCount: 1
    m_Data: {fileID: 11400000, guid: 249a3931a0c36f9468ac9aa1c5298094, type: 2}
  - m_RefCount: 1
    m_Data: {fileID: 11400000, guid: 77006a8431cd16d479e8f29c1f94567e, type: 2}
  - m_RefCount: 1
    m_Data: {fileID: 11400000, guid: e8f896c0ee224024e8c385276f871775, type: 2}
  - m_RefCount: 1
    m_Data: {fileID: 11400000, guid: 47dbcf5a86a4c524ba5f177089945cc0, type: 2}
  - m_RefCount: 1
    m_Data: {fileID: 11400000, guid: 935fa973100d42343be16858fa7cbe16, type: 2}
  - m_RefCount: 1
    m_Data: {fileID: 11400000, guid: 0d1017e11ecfa574eaae57681d99e98c, type: 2}
  - m_RefCount: 1
    m_Data: {fileID: 11400000, guid: ec45700ac7beb32448f0a71deaef48c9, type: 2}
  - m_RefCount: 1
    m_Data: {fileID: 11400000, guid: 8957a4220db7e664dbd81f5b80c6d841, type: 2}
  - m_RefCount: 1
    m_Data: {fileID: 11400000, guid: d603ff35786f7384e9e58771f9f275e8, type: 2}
  - m_RefCount: 1
    m_Data: {fileID: 11400000, guid: 989bf45e4617f9340ac6b305af23fb5d, type: 2}
  - m_RefCount: 1
    m_Data: {fileID: 11400000, guid: bf0bfaf4a9b1307459f7fde1325ed4d5, type: 2}
  - m_RefCount: 1
    m_Data: {fileID: 11400000, guid: cc307c94e7924fc41b2dd29cbd37c4e8, type: 2}
  - m_RefCount: 1
    m_Data: {fileID: 11400000, guid: 8f6a89b9925f7d24aa8db3a76aa86df9, type: 2}
  - m_RefCount: 1
    m_Data: {fileID: 11400000, guid: eb5b6a4ce2ac8af4d90b4b5e0383abe0, type: 2}
  - m_RefCount: 1
    m_Data: {fileID: 11400000, guid: 7c0f554b8d20105449fb9396059cacb1, type: 2}
  - m_RefCount: 1
    m_Data: {fileID: 11400000, guid: d7c89c134845a4a4593bed5e863df7fa, type: 2}
  - m_RefCount: 1
    m_Data: {fileID: 11400000, guid: f0ac4e6bf1dccf94aa68e919d441020c, type: 2}
  m_TileSpriteArray:
  - m_RefCount: 1
    m_Data: {fileID: 21300000, guid: 2973fb4bad8d19a43afce38c256e1a3b, type: 3}
  - m_RefCount: 1
    m_Data: {fileID: 21300002, guid: 2973fb4bad8d19a43afce38c256e1a3b, type: 3}
  - m_RefCount: 1
    m_Data: {fileID: 21300004, guid: 2973fb4bad8d19a43afce38c256e1a3b, type: 3}
  - m_RefCount: 1
    m_Data: {fileID: 21300006, guid: 2973fb4bad8d19a43afce38c256e1a3b, type: 3}
  - m_RefCount: 1
    m_Data: {fileID: 21300008, guid: 2973fb4bad8d19a43afce38c256e1a3b, type: 3}
  - m_RefCount: 1
    m_Data: {fileID: 21300010, guid: 2973fb4bad8d19a43afce38c256e1a3b, type: 3}
  - m_RefCount: 1
    m_Data: {fileID: 21300012, guid: 2973fb4bad8d19a43afce38c256e1a3b, type: 3}
  - m_RefCount: 1
    m_Data: {fileID: 21300014, guid: 2973fb4bad8d19a43afce38c256e1a3b, type: 3}
  - m_RefCount: 1
    m_Data: {fileID: 21300016, guid: 2973fb4bad8d19a43afce38c256e1a3b, type: 3}
  - m_RefCount: 1
    m_Data: {fileID: 21300018, guid: 2973fb4bad8d19a43afce38c256e1a3b, type: 3}
  - m_RefCount: 1
    m_Data: {fileID: 21300020, guid: 2973fb4bad8d19a43afce38c256e1a3b, type: 3}
  - m_RefCount: 1
    m_Data: {fileID: 21300022, guid: 2973fb4bad8d19a43afce38c256e1a3b, type: 3}
  - m_RefCount: 1
    m_Data: {fileID: 21300024, guid: 2973fb4bad8d19a43afce38c256e1a3b, type: 3}
  - m_RefCount: 1
    m_Data: {fileID: 21300026, guid: 2973fb4bad8d19a43afce38c256e1a3b, type: 3}
  - m_RefCount: 1
    m_Data: {fileID: 21300028, guid: 2973fb4bad8d19a43afce38c256e1a3b, type: 3}
  - m_RefCount: 1
    m_Data: {fileID: 21300030, guid: 2973fb4bad8d19a43afce38c256e1a3b, type: 3}
  - m_RefCount: 1
    m_Data: {fileID: 21300032, guid: 2973fb4bad8d19a43afce38c256e1a3b, type: 3}
  - m_RefCount: 1
    m_Data: {fileID: 21300034, guid: 2973fb4bad8d19a43afce38c256e1a3b, type: 3}
  - m_RefCount: 1
    m_Data: {fileID: 21300036, guid: 2973fb4bad8d19a43afce38c256e1a3b, type: 3}
  - m_RefCount: 1
    m_Data: {fileID: 21300038, guid: 2973fb4bad8d19a43afce38c256e1a3b, type: 3}
  - m_RefCount: 1
    m_Data: {fileID: 21300040, guid: 2973fb4bad8d19a43afce38c256e1a3b, type: 3}
  - m_RefCount: 1
    m_Data: {fileID: 21300042, guid: 2973fb4bad8d19a43afce38c256e1a3b, type: 3}
  - m_RefCount: 1
    m_Data: {fileID: 21300044, guid: 2973fb4bad8d19a43afce38c256e1a3b, type: 3}
  - m_RefCount: 1
    m_Data: {fileID: 21300046, guid: 2973fb4bad8d19a43afce38c256e1a3b, type: 3}
  m_TileMatrixArray:
  - m_RefCount: 24
    m_Data:
      e00: 1
      e01: 0
      e02: 0
      e03: 0
      e10: 0
      e11: 1
      e12: 0
      e13: 0
      e20: 0
      e21: 0
      e22: 1
      e23: 0
      e30: 0
      e31: 0
      e32: 0
      e33: 1
  m_TileColorArray:
  - m_RefCount: 24
    m_Data: {r: 1, g: 1, b: 1, a: 1}
  m_TileObjectToInstantiateArray: []
  m_AnimationFrameRate: 1
  m_Color: {r: 1, g: 1, b: 1, a: 1}
  m_Origin: {x: -3, y: -4, z: 0}
  m_Size: {x: 5, y: 5, z: 1}
  m_TileAnchor: {x: 0.5, y: 0.5, z: 0}
  m_TileOrientation: 0
  m_TileOrientationMatrix:
    e00: 1
    e01: 0
    e02: 0
    e03: 0
    e10: 0
    e11: 1
    e12: 0
    e13: 0
    e20: 0
    e21: 0
    e22: 1
    e23: 0
    e30: 0
    e31: 0
    e32: 0
    e33: 1
--- !u!483693784 &7322687526296501764
TilemapRenderer:
  m_ObjectHideFlags: 0
  m_CorrespondingSourceObject: {fileID: 0}
  m_PrefabInstance: {fileID: 0}
  m_PrefabAsset: {fileID: 0}
  m_GameObject: {fileID: 7238030071129011893}
  m_Enabled: 1
  m_CastShadows: 0
  m_ReceiveShadows: 0
  m_DynamicOccludee: 0
  m_MotionVectors: 1
  m_LightProbeUsage: 0
  m_ReflectionProbeUsage: 0
  m_RayTracingMode: 0
  m_RayTraceProcedural: 0
  m_RenderingLayerMask: 1
  m_RendererPriority: 0
  m_Materials:
  - {fileID: 10754, guid: 0000000000000000f000000000000000, type: 0}
  m_StaticBatchInfo:
    firstSubMesh: 0
    subMeshCount: 0
  m_StaticBatchRoot: {fileID: 0}
  m_ProbeAnchor: {fileID: 0}
  m_LightProbeVolumeOverride: {fileID: 0}
  m_ScaleInLightmap: 1
  m_ReceiveGI: 1
  m_PreserveUVs: 0
  m_IgnoreNormalsForChartDetection: 0
  m_ImportantGI: 0
  m_StitchLightmapSeams: 1
  m_SelectedEditorRenderState: 0
  m_MinimumChartSize: 4
  m_AutoUVMaxDistance: 0.5
  m_AutoUVMaxAngle: 89
  m_LightmapParameters: {fileID: 0}
  m_SortingLayerID: 0
  m_SortingLayer: 0
  m_SortingOrder: 0
  m_ChunkSize: {x: 32, y: 32, z: 32}
  m_ChunkCullingBounds: {x: 0.5625, y: 1.0416666, z: 0}
  m_MaxChunkCount: 16
  m_MaxFrameAge: 16
  m_SortOrder: 0
  m_Mode: 0
  m_DetectChunkCullingBounds: 0
  m_MaskInteraction: 0
--- !u!1001 &1246050337601118398
PrefabInstance:
  m_ObjectHideFlags: 0
  serializedVersion: 2
  m_Modification:
    m_TransformParent: {fileID: 6926223928405168516}
    m_Modifications:
    - target: {fileID: 1731872351997874304, guid: ae700056c4af9ad418f20d42887f0eab, type: 3}
      propertyPath: m_Name
      value: ChestItem
      objectReference: {fileID: 0}
    - target: {fileID: 1731872351997874306, guid: ae700056c4af9ad418f20d42887f0eab, type: 3}
      propertyPath: m_DynamicOccludee
      value: 0
      objectReference: {fileID: 0}
    - target: {fileID: 1731872351997874307, guid: ae700056c4af9ad418f20d42887f0eab, type: 3}
      propertyPath: m_RootOrder
      value: 0
      objectReference: {fileID: 0}
    - target: {fileID: 1731872351997874307, guid: ae700056c4af9ad418f20d42887f0eab, type: 3}
      propertyPath: m_LocalPosition.x
      value: -13.104166
      objectReference: {fileID: 0}
    - target: {fileID: 1731872351997874307, guid: ae700056c4af9ad418f20d42887f0eab, type: 3}
      propertyPath: m_LocalPosition.y
      value: 0.8125
      objectReference: {fileID: 0}
    - target: {fileID: 1731872351997874307, guid: ae700056c4af9ad418f20d42887f0eab, type: 3}
      propertyPath: m_LocalPosition.z
      value: 0
      objectReference: {fileID: 0}
    - target: {fileID: 1731872351997874307, guid: ae700056c4af9ad418f20d42887f0eab, type: 3}
      propertyPath: m_LocalRotation.w
      value: 1
      objectReference: {fileID: 0}
    - target: {fileID: 1731872351997874307, guid: ae700056c4af9ad418f20d42887f0eab, type: 3}
      propertyPath: m_LocalRotation.x
      value: 0
      objectReference: {fileID: 0}
    - target: {fileID: 1731872351997874307, guid: ae700056c4af9ad418f20d42887f0eab, type: 3}
      propertyPath: m_LocalRotation.y
      value: 0
      objectReference: {fileID: 0}
    - target: {fileID: 1731872351997874307, guid: ae700056c4af9ad418f20d42887f0eab, type: 3}
      propertyPath: m_LocalRotation.z
      value: 0
      objectReference: {fileID: 0}
    - target: {fileID: 1731872351997874307, guid: ae700056c4af9ad418f20d42887f0eab, type: 3}
      propertyPath: m_LocalEulerAnglesHint.x
      value: 0
      objectReference: {fileID: 0}
    - target: {fileID: 1731872351997874307, guid: ae700056c4af9ad418f20d42887f0eab, type: 3}
      propertyPath: m_LocalEulerAnglesHint.y
      value: 0
      objectReference: {fileID: 0}
    - target: {fileID: 1731872351997874307, guid: ae700056c4af9ad418f20d42887f0eab, type: 3}
      propertyPath: m_LocalEulerAnglesHint.z
      value: 0
      objectReference: {fileID: 0}
    m_RemovedComponents: []
  m_SourcePrefab: {fileID: 100100000, guid: ae700056c4af9ad418f20d42887f0eab, type: 3}
--- !u!4 &667100729879507005 stripped
Transform:
  m_CorrespondingSourceObject: {fileID: 1731872351997874307, guid: ae700056c4af9ad418f20d42887f0eab, type: 3}
  m_PrefabInstance: {fileID: 1246050337601118398}
  m_PrefabAsset: {fileID: 0}
--- !u!1001 &3365321873044434577
PrefabInstance:
  m_ObjectHideFlags: 0
  serializedVersion: 2
  m_Modification:
    m_TransformParent: {fileID: 6926223928405168516}
    m_Modifications:
    - target: {fileID: 5608140667270919720, guid: d8e130924128d9a49baab2262fb1494b, type: 3}
      propertyPath: m_RootOrder
      value: 2
      objectReference: {fileID: 0}
    - target: {fileID: 5608140667270919720, guid: d8e130924128d9a49baab2262fb1494b, type: 3}
      propertyPath: m_LocalPosition.x
      value: -10.020833
      objectReference: {fileID: 0}
    - target: {fileID: 5608140667270919720, guid: d8e130924128d9a49baab2262fb1494b, type: 3}
      propertyPath: m_LocalPosition.y
      value: 0.8125
      objectReference: {fileID: 0}
    - target: {fileID: 5608140667270919720, guid: d8e130924128d9a49baab2262fb1494b, type: 3}
      propertyPath: m_LocalPosition.z
      value: 0
      objectReference: {fileID: 0}
    - target: {fileID: 5608140667270919720, guid: d8e130924128d9a49baab2262fb1494b, type: 3}
      propertyPath: m_LocalRotation.w
      value: 1
      objectReference: {fileID: 0}
    - target: {fileID: 5608140667270919720, guid: d8e130924128d9a49baab2262fb1494b, type: 3}
      propertyPath: m_LocalRotation.x
      value: 0
      objectReference: {fileID: 0}
    - target: {fileID: 5608140667270919720, guid: d8e130924128d9a49baab2262fb1494b, type: 3}
      propertyPath: m_LocalRotation.y
      value: 0
      objectReference: {fileID: 0}
    - target: {fileID: 5608140667270919720, guid: d8e130924128d9a49baab2262fb1494b, type: 3}
      propertyPath: m_LocalRotation.z
      value: 0
      objectReference: {fileID: 0}
    - target: {fileID: 5608140667270919720, guid: d8e130924128d9a49baab2262fb1494b, type: 3}
      propertyPath: m_LocalEulerAnglesHint.x
      value: 0
      objectReference: {fileID: 0}
    - target: {fileID: 5608140667270919720, guid: d8e130924128d9a49baab2262fb1494b, type: 3}
      propertyPath: m_LocalEulerAnglesHint.y
      value: 0
      objectReference: {fileID: 0}
    - target: {fileID: 5608140667270919720, guid: d8e130924128d9a49baab2262fb1494b, type: 3}
      propertyPath: m_LocalEulerAnglesHint.z
      value: 0
      objectReference: {fileID: 0}
    - target: {fileID: 5608140667270919721, guid: d8e130924128d9a49baab2262fb1494b, type: 3}
      propertyPath: m_Name
      value: WoodItem
      objectReference: {fileID: 0}
    - target: {fileID: 5608140667270919723, guid: d8e130924128d9a49baab2262fb1494b, type: 3}
      propertyPath: m_DynamicOccludee
      value: 0
      objectReference: {fileID: 0}
    m_RemovedComponents: []
  m_SourcePrefab: {fileID: 100100000, guid: d8e130924128d9a49baab2262fb1494b, type: 3}
--- !u!4 &7160750141789477049 stripped
Transform:
  m_CorrespondingSourceObject: {fileID: 5608140667270919720, guid: d8e130924128d9a49baab2262fb1494b, type: 3}
  m_PrefabInstance: {fileID: 3365321873044434577}
  m_PrefabAsset: {fileID: 0}
--- !u!1001 &3659931921075936464
PrefabInstance:
  m_ObjectHideFlags: 0
  serializedVersion: 2
  m_Modification:
    m_TransformParent: {fileID: 6926223928405168516}
    m_Modifications:
    - target: {fileID: 8285402280197546392, guid: 9930ca261448c1e488737d3031f27349, type: 3}
      propertyPath: m_DynamicOccludee
      value: 0
      objectReference: {fileID: 0}
    - target: {fileID: 8285402280197546395, guid: 9930ca261448c1e488737d3031f27349, type: 3}
      propertyPath: m_RootOrder
      value: 1
      objectReference: {fileID: 0}
    - target: {fileID: 8285402280197546395, guid: 9930ca261448c1e488737d3031f27349, type: 3}
      propertyPath: m_LocalPosition.x
      value: -11.5625
      objectReference: {fileID: 0}
    - target: {fileID: 8285402280197546395, guid: 9930ca261448c1e488737d3031f27349, type: 3}
      propertyPath: m_LocalPosition.y
      value: 0.8125
      objectReference: {fileID: 0}
    - target: {fileID: 8285402280197546395, guid: 9930ca261448c1e488737d3031f27349, type: 3}
      propertyPath: m_LocalPosition.z
      value: 0
      objectReference: {fileID: 0}
    - target: {fileID: 8285402280197546395, guid: 9930ca261448c1e488737d3031f27349, type: 3}
      propertyPath: m_LocalRotation.w
      value: 1
      objectReference: {fileID: 0}
    - target: {fileID: 8285402280197546395, guid: 9930ca261448c1e488737d3031f27349, type: 3}
      propertyPath: m_LocalRotation.x
      value: 0
      objectReference: {fileID: 0}
    - target: {fileID: 8285402280197546395, guid: 9930ca261448c1e488737d3031f27349, type: 3}
      propertyPath: m_LocalRotation.y
      value: 0
      objectReference: {fileID: 0}
    - target: {fileID: 8285402280197546395, guid: 9930ca261448c1e488737d3031f27349, type: 3}
      propertyPath: m_LocalRotation.z
      value: 0
      objectReference: {fileID: 0}
    - target: {fileID: 8285402280197546395, guid: 9930ca261448c1e488737d3031f27349, type: 3}
      propertyPath: m_LocalEulerAnglesHint.x
      value: 0
      objectReference: {fileID: 0}
    - target: {fileID: 8285402280197546395, guid: 9930ca261448c1e488737d3031f27349, type: 3}
      propertyPath: m_LocalEulerAnglesHint.y
      value: 0
      objectReference: {fileID: 0}
    - target: {fileID: 8285402280197546395, guid: 9930ca261448c1e488737d3031f27349, type: 3}
      propertyPath: m_LocalEulerAnglesHint.z
      value: 0
      objectReference: {fileID: 0}
    - target: {fileID: 8285402280197546398, guid: 9930ca261448c1e488737d3031f27349, type: 3}
      propertyPath: m_Name
      value: KeysItem
      objectReference: {fileID: 0}
    m_RemovedComponents: []
  m_SourcePrefab: {fileID: 100100000, guid: 9930ca261448c1e488737d3031f27349, type: 3}
--- !u!4 &4625506644400995659 stripped
Transform:
  m_CorrespondingSourceObject: {fileID: 8285402280197546395, guid: 9930ca261448c1e488737d3031f27349, type: 3}
  m_PrefabInstance: {fileID: 3659931921075936464}
  m_PrefabAsset: {fileID: 0}
--- !u!114 &3576762882947356521
MonoBehaviour:
  m_ObjectHideFlags: 0
  m_CorrespondingSourceObject: {fileID: 0}
  m_PrefabInstance: {fileID: 0}
  m_PrefabAsset: {fileID: 0}
  m_GameObject: {fileID: 0}
  m_Enabled: 1
  m_EditorHideFlags: 0
  m_Script: {fileID: 12395, guid: 0000000000000000e000000000000000, type: 0}
  m_Name: Palette Settings
  m_EditorClassIdentifier: 
  cellSizing: 0
  m_TransparencySortMode: 0
  m_TransparencySortAxis: {x: 0, y: 0, z: 1}
